2020-11-26T08:29:59.7887796+07:00 800003d8-0004-ff00-b63f-84710c7967bb [WRN] Failed to determine the https port for redirect. (ca76cc21)
2020-11-26T09:24:24.4452999+07:00 800002a1-0003-fc00-b63f-84710c7967bb [WRN] Failed to determine the https port for redirect. (ca76cc21)
2020-11-26T09:25:30.6335884+07:00 8000012f-0000-fc00-b63f-84710c7967bb [WRN] Failed to determine the https port for redirect. (ca76cc21)
2020-11-26T09:29:28.2253986+07:00 800002a5-0003-fc00-b63f-84710c7967bb [WRN] Failed to determine the https port for redirect. (ca76cc21)
2020-11-26T09:30:57.0535315+07:00 80000134-0000-fc00-b63f-84710c7967bb [WRN] Failed to determine the https port for redirect. (ca76cc21)
2020-11-26T09:31:40.6404415+07:00 800002a9-0003-fc00-b63f-84710c7967bb [WRN] Failed to determine the https port for redirect. (ca76cc21)
2020-11-26T09:41:19.4410166+07:00 8000042c-0004-ff00-b63f-84710c7967bb [WRN] Failed to determine the https port for redirect. (ca76cc21)
2020-11-26T09:42:38.8833331+07:00 800003ca-0003-fb00-b63f-84710c7967bb [WRN] Failed to determine the https port for redirect. (ca76cc21)
2020-11-26T09:44:24.1787053+07:00 800003c9-0005-fb00-b63f-84710c7967bb [WRN] Failed to determine the https port for redirect. (ca76cc21)
2020-11-26T09:54:43.3725992+07:00 80000521-0003-fb00-b63f-84710c7967bb [WRN] Failed to determine the https port for redirect. (ca76cc21)
2020-11-26T09:57:16.9263069+07:00 800004e1-0004-ff00-b63f-84710c7967bb [WRN] Failed to determine the https port for redirect. (ca76cc21)
2020-11-26T10:04:43.2002541+07:00 80000236-0005-f800-b63f-84710c7967bb [WRN] Failed to determine the https port for redirect. (ca76cc21)
2020-11-26T10:13:50.0083183+07:00 80000098-0005-f900-b63f-84710c7967bb [WRN] Failed to determine the https port for redirect. (ca76cc21)
2020-11-26T13:56:18.6771949+07:00 80000002-0001-ff00-b63f-84710c7967bb [WRN] Failed to determine the https port for redirect. (ca76cc21)
2020-11-26T14:03:47.6784150+07:00 80000003-0000-fa00-b63f-84710c7967bb [WRN] Failed to determine the https port for redirect. (ca76cc21)
2020-11-26T14:11:02.0466155+07:00 80000004-0004-fe00-b63f-84710c7967bb [WRN] Failed to determine the https port for redirect. (ca76cc21)
2020-11-26T14:19:58.8420547+07:00 8000005d-0003-fc00-b63f-84710c7967bb [WRN] Failed to determine the https port for redirect. (ca76cc21)
2020-11-26T14:30:32.7525748+07:00 80000010-0005-f800-b63f-84710c7967bb [WRN] Failed to determine the https port for redirect. (ca76cc21)
2020-11-26T14:32:40.8482821+07:00 80000069-0004-fe00-b63f-84710c7967bb [WRN] Failed to determine the https port for redirect. (ca76cc21)
2020-11-26T15:25:42.8900535+07:00 800004f3-0003-fe00-b63f-84710c7967bb [WRN] Failed to determine the https port for redirect. (ca76cc21)
2020-11-26T15:26:57.7142867+07:00 80000454-0003-ff00-b63f-84710c7967bb [WRN] Failed to determine the https port for redirect. (ca76cc21)
2020-11-26T16:26:07.9249787+07:00 8000004b-0005-f600-b63f-84710c7967bb [WRN] Failed to determine the https port for redirect. (ca76cc21)
2020-11-26T16:28:53.7011452+07:00 80000647-0003-fc00-b63f-84710c7967bb [WRN] Failed to determine the https port for redirect. (ca76cc21)
2020-11-26T16:31:50.1079263+07:00 8000074e-0003-f700-b63f-84710c7967bb [WRN] Failed to determine the https port for redirect. (ca76cc21)
2020-11-26T16:38:16.0743359+07:00 8000078a-0004-f900-b63f-84710c7967bb [WRN] Failed to determine the https port for redirect. (ca76cc21)
2020-11-26T16:43:10.1042646+07:00 80000120-0005-f700-b63f-84710c7967bb [WRN] Failed to determine the https port for redirect. (ca76cc21)
2020-11-26T16:46:41.7488662+07:00 80000455-0001-fd00-b63f-84710c7967bb [WRN] Failed to determine the https port for redirect. (ca76cc21)
2020-11-26T16:51:28.5182582+07:00 8000078c-0003-f700-b63f-84710c7967bb [WRN] Failed to determine the https port for redirect. (ca76cc21)
2020-11-26T16:52:43.7048689+07:00 80000092-0005-f400-b63f-84710c7967bb [WRN] Failed to determine the https port for redirect. (ca76cc21)
2020-11-26T17:16:40.6145926+07:00 80000570-0003-fb00-b63f-84710c7967bb [WRN] Failed to determine the https port for redirect. (ca76cc21)
2020-11-26T17:22:12.1605890+07:00 80000018-0004-f400-b63f-84710c7967bb [WRN] Failed to determine the https port for redirect. (ca76cc21)
