2020-12-29T16:19:27.5662614+07:00 80000002-0003-fe00-b63f-84710c7967bb [WRN] Failed to determine the https port for redirect. (ca76cc21)
2020-12-29T16:20:57.2986584+07:00 8000003d-0005-fd00-b63f-84710c7967bb [WRN] Failed to determine the https port for redirect. (ca76cc21)
2020-12-29T16:25:19.3702505+07:00 80000032-0005-fc00-b63f-84710c7967bb [WRN] Failed to determine the https port for redirect. (ca76cc21)
2020-12-29T16:33:43.3085742+07:00 80000075-0005-ff00-b63f-84710c7967bb [WRN] Failed to determine the https port for redirect. (ca76cc21)
2020-12-29T17:22:22.6529960+07:00 80000765-0004-fc00-b63f-84710c7967bb [WRN] Failed to determine the https port for redirect. (ca76cc21)
2020-12-29T17:24:23.3825144+07:00 80000015-0005-f900-b63f-84710c7967bb [WRN] Failed to determine the https port for redirect. (ca76cc21)
2020-12-29T17:25:27.3440973+07:00 80000336-0004-fd00-b63f-84710c7967bb [WRN] Failed to determine the https port for redirect. (ca76cc21)
2020-12-29T17:28:23.9148493+07:00 800005b8-0003-ff00-b63f-84710c7967bb [WRN] Failed to determine the https port for redirect. (ca76cc21)
2020-12-29T17:43:08.8020951+07:00 8000093e-0004-fc00-b63f-84710c7967bb [WRN] Failed to determine the https port for redirect. (ca76cc21)
